first,second,third,forth,fifth,sixth,seventh,eighth,site12,site23,site34,site45,site56,site67,site78,cleaved
1,1,1,1,1,1,1,1,-1,1,1,1,1,1,-1,1
1,1,1,1,-1,1,1,1,-1,-1,-1,-1,-1,-1,-1,1
1,1,1,1,-1,1,1,1,-1,-1,-1,-1,-1,-1,-1,1
1,1,-1,1,1,1,-1,1,-1,-1,-1,1,1,-1,-1,1
1,1,1,1,1,1,1,1,-1,-1,-1,-1,-1,-1,-1,1
1,1,1,1,1,1,1,1,-1,-1,-1,-1,-1,-1,-1,1
1,1,1,1,1,1,1,1,-1,-1,-1,-1,-1,-1,-1,1
1,1,1,1,1,1,1,1,-1,-1,1,1,1,1,-1,1
1,1,1,1,1,1,1,1,-1,-1,1,1,1,1,-1,1
1,1,1,1,1,1,1,1,-1,-1,1,1,1,1,-1,1
1,1,1,1,1,1,1,1,-1,-1,1,-1,-1,-1,-1,1
1,1,1,1,1,1,1,1,-1,-1,1,1,-1,-1,-1,1
1,1,1,1,1,1,1,1,-1,-1,1,1,-1,-1,-1,1
1,1,1,1,1,1,1,1,-1,-1,-1,-1,-1,-1,-1,1
1,1,1,1,1,1,1,1,-1,-1,1,1,1,1,-1,1
1,1,1,1,1,1,1,1,1,-1,-1,1,1,1,-1,1
1,1,1,1,1,1,1,1,1,-1,-1,1,1,1,-1,1
1,1,1,1,1,1,1,1,1,-1,-1,1,1,1,-1,1
1,1,1,1,1,1,1,1,1,-1,-1,-1,1,1,-1,1
1,1,1,1,1,1,1,1,1,-1,-1,-1,-1,1,-1,1
1,1,1,1,1,1,1,1,1,-1,-1,-1,-1,-1,-1,1
1,1,1,1,1,1,1,1,1,-1,-1,-1,-1,-1,-1,1
1,1,1,1,1,1,1,1,1,-1,-1,-1,-1,-1,-1,1
1,1,1,1,1,1,1,1,1,-1,1,1,-1,1,-1,1
1,1,1,1,1,1,1,1,1,-1,1,1,-1,-1,-1,1
1,1,-1,1,1,1,1,1,1,-1,-1,1,1,1,-1,1
1,1,1,1,1,1,1,1,1,1,-1,-1,1,1,-1,1
1,1,1,1,1,1,1,1,1,1,-1,-1,1,1,-1,1
1,1,1,-1,1,1,1,1,1,1,-1,-1,1,1,-1,1
1,1,1,1,1,1,1,1,1,1,1,1,1,1,-1,1
1,1,1,1,1,1,1,1,1,1,1,1,1,1,-1,1
1,1,1,1,1,1,1,1,1,1,1,1,1,1,-1,1
1,1,1,1,1,1,1,1,1,1,1,1,1,1,-1,1
1,1,1,1,1,1,1,1,1,1,1,1,1,1,-1,1
1,1,1,1,1,1,1,1,1,1,1,1,1,1,-1,1
1,1,1,1,1,1,1,1,1,1,1,1,1,1,-1,1
1,1,1,1,1,1,1,1,1,1,1,1,1,-1,-1,1
1,1,1,1,1,1,1,1,1,1,1,1,1,-1,-1,1
1,1,1,1,1,1,1,1,1,1,1,1,1,-1,-1,1
1,1,1,1,1,1,1,1,1,1,1,1,1,-1,-1,1
1,1,1,1,1,1,1,1,1,1,1,1,1,-1,-1,1
1,1,1,1,1,1,1,1,1,1,1,1,-1,-1,-1,1
1,1,1,1,1,1,1,1,1,1,1,1,-1,-1,-1,1
1,1,1,1,1,1,1,1,1,1,1,-1,-1,-1,-1,1
1,1,1,1,1,-1,1,1,1,1,1,-1,-1,-1,-1,1
1,1,1,1,1,1,1,1,1,1,1,-1,-1,1,-1,1
1,1,1,1,1,1,1,1,1,1,1,-1,-1,1,-1,1
1,1,1,1,1,1,1,1,1,1,1,-1,-1,-1,-1,1
1,1,1,1,1,-1,1,1,1,1,1,-1,-1,-1,-1,1
1,1,1,1,1,1,1,1,1,1,1,-1,-1,-1,-1,1
1,1,1,1,1,1,1,1,1,1,1,-1,-1,-1,-1,1
1,1,1,1,1,1,1,1,1,1,1,-1,-1,-1,-1,1
1,1,1,1,1,1,1,1,1,1,1,-1,-1,1,-1,1
1,1,1,1,1,1,1,1,1,1,1,-1,-1,1,-1,1
1,1,1,1,1,1,1,1,1,1,1,-1,-1,1,-1,1
1,1,1,1,1,1,1,1,1,1,1,-1,-1,1,-1,1
1,1,1,1,-1,1,1,1,1,1,1,-1,-1,1,-1,1
1,1,1,1,1,1,1,1,1,1,1,-1,-1,1,-1,1
1,1,1,1,1,1,1,1,1,1,-1,-1,1,1,-1,1
1,1,1,1,1,1,1,1,1,1,-1,-1,1,1,-1,1
1,1,1,1,1,1,1,1,1,1,-1,-1,1,1,-1,1
1,1,1,1,1,1,1,1,1,1,-1,1,-1,1,-1,1
1,1,1,1,1,1,1,1,-1,-1,-1,-1,-1,-1,-1,1
1,1,1,1,1,1,1,1,-1,-1,-1,-1,-1,-1,-1,1
1,1,1,1,1,1,1,1,-1,-1,-1,-1,-1,-1,-1,1
1,1,1,1,1,1,1,1,-1,-1,-1,1,-1,-1,-1,1
1,1,1,1,1,1,1,1,-1,-1,1,1,1,1,-1,1
1,1,1,1,1,1,1,1,-1,-1,1,-1,-1,-1,-1,1
1,1,1,1,1,1,1,1,-1,-1,-1,-1,-1,-1,-1,1
1,1,1,1,1,1,1,1,-1,-1,-1,-1,-1,1,-1,1
1,1,1,1,1,1,1,1,-1,-1,1,-1,-1,-1,-1,1
1,1,1,1,1,1,1,1,-1,-1,1,-1,-1,-1,-1,1
1,1,1,1,1,1,-1,-1,-1,-1,-1,-1,-1,-1,-1,1
1,1,1,1,1,1,1,1,-1,-1,1,1,-1,-1,-1,1
1,-1,1,-1,1,1,1,1,-1,-1,-1,-1,1,-1,-1,1
1,1,1,1,-1,1,1,1,-1,-1,1,-1,-1,-1,-1,1
1,1,1,1,1,1,1,1,-1,-1,-1,-1,1,-1,-1,1
1,1,1,1,1,1,-1,-1,-1,-1,-1,-1,1,-1,-1,1
1,1,-1,1,1,1,1,1,-1,-1,-1,-1,-1,-1,-1,1
1,1,-1,1,1,1,1,1,-1,-1,-1,1,1,-1,-1,1
1,1,1,1,1,1,-1,1,-1,-1,-1,-1,-1,-1,-1,1
1,1,1,1,1,1,1,1,-1,1,1,1,1,1,-1,1
1,1,1,1,1,1,-1,1,-1,-1,-1,-1,-1,-1,-1,1
-1,1,1,1,1,1,1,1,-1,1,-1,-1,1,1,1,1
-1,1,1,1,1,1,1,1,-1,-1,-1,1,-1,-1,-1,1
-1,1,-1,1,1,1,1,1,-1,-1,-1,-1,-1,-1,-1,1
1,1,1,1,1,1,1,1,-1,1,-1,-1,1,1,1,1
1,1,1,1,1,1,1,1,-1,1,-1,-1,1,1,1,1
1,1,1,1,1,1,1,-1,-1,-1,-1,-1,-1,-1,-1,1
1,1,1,1,1,1,1,1,-1,-1,-1,-1,-1,-1,-1,1
1,1,1,1,1,-1,1,1,-1,-1,-1,-1,-1,-1,-1,1
1,1,1,1,1,1,1,1,-1,-1,-1,-1,1,1,-1,1
1,1,1,1,1,1,1,1,-1,-1,-1,-1,-1,-1,-1,1
1,1,1,1,1,1,1,1,-1,-1,1,1,-1,-1,-1,1
1,1,1,1,1,1,1,1,-1,-1,-1,-1,-1,-1,-1,1
1,1,1,1,1,1,1,1,-1,-1,1,-1,-1,-1,-1,1
1,1,1,1,1,1,1,1,-1,-1,-1,-1,-1,-1,-1,1
1,1,1,1,1,1,1,-1,-1,-1,-1,-1,-1,-1,-1,1
1,1,1,1,1,1,1,1,-1,-1,-1,-1,-1,-1,-1,1
1,1,1,1,1,1,1,1,-1,-1,-1,-1,-1,-1,-1,1
1,1,1,1,-1,1,1,1,-1,-1,1,-1,-1,-1,-1,1
1,1,1,1,1,1,1,1,-1,-1,-1,-1,-1,-1,-1,1
1,1,-1,1,1,1,1,1,-1,-1,-1,-1,-1,-1,-1,1
1,1,1,1,1,1,1,1,-1,-1,1,1,-1,-1,-1,1
1,1,1,1,1,1,1,1,-1,-1,-1,-1,-1,-1,-1,1
1,1,1,1,1,1,1,1,-1,-1,-1,-1,-1,-1,-1,1
1,-1,1,1,1,1,1,1,-1,-1,-1,-1,-1,1,-1,1
1,1,1,1,1,1,1,1,-1,-1,-1,1,1,-1,-1,1
1,1,1,1,1,1,1,1,-1,-1,-1,-1,-1,-1,-1,1
1,1,1,1,1,1,1,1,-1,-1,-1,-1,-1,1,-1,1
1,1,1,1,1,1,1,1,-1,1,-1,-1,1,1,1,1
1,1,1,-1,1,1,1,1,-1,-1,-1,-1,-1,-1,-1,1
1,-1,1,1,1,1,1,1,-1,-1,-1,-1,-1,-1,-1,1
-1,1,1,1,1,1,1,1,-1,-1,-1,-1,-1,-1,-1,1
-1,1,1,1,1,1,1,1,-1,-1,-1,1,-1,-1,-1,1
-1,1,1,1,1,1,1,1,-1,-1,1,1,-1,-1,-1,1
-1,1,1,1,1,1,-1,1,-1,-1,-1,-1,1,-1,-1,1
-1,1,1,1,1,1,1,1,-1,-1,1,1,-1,-1,-1,1
-1,1,1,1,1,1,1,1,-1,1,-1,-1,1,1,1,1
-1,1,1,1,1,1,-1,1,-1,-1,-1,-1,-1,-1,-1,1
-1,1,1,1,1,1,1,1,-1,-1,-1,-1,-1,-1,-1,1
-1,1,1,1,1,1,1,1,-1,-1,1,-1,-1,-1,-1,1
-1,-1,1,1,1,1,1,1,-1,-1,-1,-1,-1,-1,-1,1
-1,1,1,1,1,1,1,1,-1,-1,1,1,-1,-1,-1,1
-1,1,1,1,1,1,1,1,-1,-1,-1,-1,-1,-1,-1,1
1,1,1,1,1,1,1,1,-1,-1,1,1,-1,-1,-1,1
1,1,1,1,1,1,1,1,-1,1,1,1,1,1,-1,1
1,1,1,1,1,1,1,1,-1,1,-1,-1,1,1,1,1
1,1,1,1,1,1,1,1,-1,-1,1,1,-1,-1,-1,1
1,-1,1,1,1,1,1,-1,-1,-1,-1,-1,-1,-1,-1,1
1,1,1,1,1,1,1,1,1,-1,-1,-1,-1,1,1,1
1,1,1,1,1,1,1,1,1,-1,-1,-1,1,1,1,1
1,1,1,1,1,1,1,1,1,-1,-1,-1,1,1,1,1
1,1,1,1,1,1,1,1,1,-1,-1,-1,-1,1,1,1
1,1,1,1,1,1,1,1,1,-1,-1,-1,1,1,1,1
1,1,1,1,1,1,1,1,1,-1,-1,-1,1,1,1,1
1,1,1,1,1,1,1,1,1,-1,-1,-1,-1,1,1,1
1,1,1,1,1,1,1,1,1,-1,-1,-1,1,1,1,1
1,1,1,1,1,1,-1,1,1,-1,-1,-1,-1,-1,-1,1
1,1,1,1,1,1,1,1,1,-1,-1,-1,-1,1,1,1
1,1,1,1,1,1,1,1,1,-1,-1,-1,1,1,1,1
1,1,1,1,1,1,1,1,1,-1,-1,-1,1,1,1,1
1,1,-1,1,1,1,1,1,1,-1,-1,-1,1,1,1,1
1,1,-1,1,1,1,1,1,1,-1,-1,-1,1,1,1,1
1,1,1,1,1,1,1,1,1,1,-1,-1,1,1,1,1
1,1,1,-1,1,1,1,1,1,1,-1,-1,1,1,1,1
1,1,1,1,1,1,1,1,1,1,-1,-1,1,1,1,1
1,1,1,1,1,1,1,1,1,1,-1,-1,1,1,1,1
1,1,1,-1,1,1,1,1,1,1,-1,-1,-1,1,1,1
1,1,1,-1,1,1,1,1,1,1,-1,-1,1,1,1,1
1,1,1,1,1,1,1,1,1,1,1,1,-1,1,1,1
1,1,1,1,1,1,1,1,1,1,1,-1,-1,1,1,1
1,1,1,1,1,1,1,1,1,1,1,-1,-1,1,1,1
1,1,1,1,1,1,1,1,1,1,1,-1,1,1,1,1
1,1,1,-1,1,1,1,1,1,1,-1,-1,1,1,1,1
1,1,1,1,1,1,1,1,1,1,-1,-1,-1,1,1,1
1,1,1,1,-1,1,1,1,1,1,-1,-1,-1,1,1,1
1,1,1,1,1,1,1,1,1,1,-1,-1,-1,1,1,1
1,1,1,1,1,1,1,1,1,1,-1,-1,-1,1,1,1
1,1,1,1,1,1,1,1,1,1,-1,-1,1,-1,-1,1
1,1,1,1,1,1,1,1,1,1,-1,-1,1,1,1,1
1,1,1,1,1,1,1,1,1,1,-1,-1,1,-1,-1,1
1,1,1,1,1,1,1,1,1,1,-1,-1,1,-1,-1,1
1,1,1,1,1,-1,1,1,1,1,-1,-1,-1,-1,1,1
1,1,1,1,1,-1,1,1,1,1,-1,-1,-1,-1,1,1
1,1,1,1,1,1,1,1,1,1,-1,-1,-1,-1,1,1
1,1,1,1,1,1,1,1,1,1,-1,-1,-1,-1,1,1
1,1,1,1,-1,1,1,1,1,1,-1,-1,-1,1,1,1
1,1,1,1,-1,1,1,1,1,1,-1,-1,-1,1,1,1
1,1,1,1,1,1,1,1,1,1,-1,-1,-1,1,1,1
1,1,1,-1,1,1,1,1,1,1,-1,-1,1,1,1,1
1,1,1,1,1,1,1,1,1,1,-1,-1,-1,1,1,1
1,1,1,1,1,1,1,1,1,1,-1,-1,-1,1,1,1
1,1,1,1,1,1,1,1,1,1,-1,-1,-1,1,1,1
1,1,1,1,1,1,1,1,1,1,-1,-1,1,1,1,1
1,1,1,1,1,1,1,1,1,1,-1,-1,-1,1,1,1
1,1,-1,1,1,1,1,1,1,-1,-1,-1,1,1,1,1
1,1,1,1,1,1,1,1,-1,-1,-1,-1,1,1,1,1
1,1,1,1,1,1,1,1,-1,-1,-1,-1,-1,-1,-1,1
1,1,1,1,-1,1,1,1,-1,-1,-1,-1,-1,-1,-1,1
1,1,1,1,1,1,1,1,-1,-1,-1,-1,1,1,1,1
1,1,1,1,1,1,1,1,-1,-1,-1,-1,1,1,1,1
1,1,1,1,1,1,1,1,-1,-1,-1,-1,-1,-1,-1,1
1,1,1,1,1,1,1,1,-1,-1,-1,-1,-1,-1,-1,1
1,1,1,1,1,1,1,1,-1,-1,-1,-1,-1,-1,-1,1
1,1,1,1,1,1,1,1,-1,-1,-1,-1,-1,-1,-1,1
1,1,1,1,1,1,1,1,-1,-1,-1,-1,-1,-1,-1,1
1,1,1,1,1,1,1,1,-1,-1,1,-1,-1,-1,-1,1
1,1,1,1,1,1,1,1,-1,-1,-1,-1,1,1,1,1
1,1,1,1,1,1,1,1,-1,-1,-1,-1,1,1,1,1
1,-1,1,1,1,1,1,1,-1,-1,-1,-1,1,1,1,1
1,-1,1,1,1,1,1,1,-1,-1,-1,-1,1,1,1,1
1,-1,1,1,1,1,1,1,-1,-1,-1,-1,1,-1,-1,1
1,1,1,1,1,1,1,1,-1,-1,1,-1,-1,-1,-1,1
1,1,1,1,1,1,1,-1,-1,-1,-1,-1,-1,-1,-1,1
1,1,1,1,1,1,1,1,-1,-1,-1,-1,-1,-1,-1,1
1,-1,1,1,1,1,1,1,-1,-1,-1,-1,1,1,1,1
1,-1,1,1,1,1,1,1,-1,-1,-1,-1,1,1,1,1
1,1,1,1,1,1,1,1,-1,-1,-1,-1,-1,-1,-1,1
1,1,1,1,1,1,1,1,-1,-1,1,1,-1,-1,-1,1
1,1,1,1,1,1,1,1,-1,-1,1,-1,-1,-1,-1,1
1,1,1,1,1,1,1,1,-1,-1,-1,-1,1,1,1,1
1,1,1,1,1,1,1,1,-1,-1,-1,-1,1,1,1,1
1,1,1,1,1,1,1,1,-1,-1,-1,-1,1,1,1,1
1,1,1,1,1,1,1,1,-1,-1,-1,-1,1,1,1,1
1,1,1,1,1,1,1,1,-1,-1,-1,-1,-1,-1,-1,1
1,1,1,1,1,1,1,1,-1,-1,-1,-1,-1,-1,-1,1
1,1,1,1,1,1,1,1,-1,1,-1,-1,1,1,1,1
1,1,1,1,1,1,1,1,-1,1,-1,-1,1,1,1,1
1,1,1,1,1,1,1,1,-1,1,1,1,1,1,-1,1
1,1,1,1,1,1,1,1,-1,1,1,-1,1,1,1,1
1,1,1,1,1,1,1,1,-1,1,-1,-1,1,1,1,1
1,1,1,1,1,1,1,1,-1,1,-1,-1,1,1,1,1
1,-1,1,1,1,1,1,1,-1,-1,-1,-1,1,1,1,1
1,-1,1,1,1,1,1,1,-1,-1,-1,-1,1,1,1,1
1,1,1,1,1,1,1,1,-1,-1,-1,-1,-1,1,-1,1
1,1,1,1,1,1,1,1,-1,-1,-1,-1,1,1,1,1
1,1,1,1,1,1,1,1,-1,-1,-1,-1,1,1,1,1
1,-1,1,1,1,1,1,1,-1,-1,-1,-1,-1,-1,-1,1
-1,1,1,1,1,1,1,1,-1,-1,-1,-1,1,-1,-1,1
-1,1,1,1,1,1,1,1,-1,-1,-1,-1,-1,-1,-1,1
-1,-1,1,1,1,-1,1,1,-1,-1,-1,-1,-1,-1,-1,1
-1,-1,1,1,1,1,1,1,-1,-1,-1,-1,-1,-1,-1,1
-1,1,1,1,-1,1,1,1,-1,-1,-1,-1,-1,-1,-1,1
1,1,1,1,-1,1,1,1,-1,-1,-1,-1,-1,-1,-1,1
1,1,1,1,1,1,1,1,-1,-1,-1,-1,-1,-1,-1,1
1,1,1,1,1,1,1,1,-1,-1,1,-1,-1,-1,-1,1
1,1,1,1,1,1,1,1,-1,-1,-1,-1,-1,-1,-1,1
1,1,1,1,1,1,1,1,-1,-1,1,1,-1,-1,-1,1
1,1,1,1,1,1,1,1,-1,-1,1,1,-1,-1,-1,1
1,1,1,1,1,1,1,1,-1,-1,1,-1,-1,-1,-1,1
1,1,1,1,1,1,1,1,-1,-1,-1,-1,-1,-1,-1,1
1,1,1,1,1,1,1,1,-1,-1,-1,-1,-1,-1,-1,1
1,1,1,1,1,1,1,1,-1,1,1,1,1,1,-1,1
1,1,1,1,1,1,1,1,-1,1,-1,-1,-1,-1,-1,1
1,-1,1,1,1,1,-1,1,-1,-1,-1,-1,-1,-1,-1,1
1,1,1,1,1,1,1,1,-1,-1,-1,1,-1,-1,-1,1
1,1,1,1,1,1,1,1,-1,-1,-1,1,-1,-1,-1,1
1,1,1,1,1,1,1,1,-1,-1,-1,1,-1,-1,-1,1
1,1,1,1,1,1,1,1,-1,-1,-1,1,-1,-1,-1,1
1,1,-1,1,1,1,1,1,-1,-1,-1,1,-1,-1,-1,1
1,1,-1,1,1,1,1,1,-1,-1,-1,1,-1,-1,-1,1
1,1,1,1,1,1,1,1,-1,-1,-1,1,-1,-1,-1,1
1,1,1,1,1,1,1,1,-1,-1,-1,1,-1,-1,-1,1
1,1,1,1,1,1,1,1,-1,-1,-1,1,-1,-1,-1,1
1,1,1,1,1,1,1,1,-1,-1,1,1,-1,-1,-1,1
1,1,1,1,1,1,1,1,-1,-1,-1,1,-1,-1,-1,1
1,1,1,1,1,1,1,1,-1,-1,-1,1,-1,-1,-1,1
1,1,1,1,1,1,1,1,-1,-1,-1,1,-1,-1,-1,1
1,1,1,1,1,-1,1,1,-1,-1,-1,1,-1,-1,-1,1
1,1,1,1,1,1,1,1,-1,-1,-1,1,-1,-1,-1,1
1,1,1,1,1,1,1,1,-1,-1,-1,1,-1,-1,-1,1
1,1,1,1,1,1,1,1,-1,-1,-1,1,-1,-1,-1,1
1,1,1,1,1,1,1,1,-1,-1,-1,1,-1,-1,-1,1
1,1,1,1,1,1,1,1,-1,-1,-1,1,-1,-1,-1,1
1,1,1,1,1,1,1,1,-1,-1,-1,1,-1,-1,-1,1
1,1,1,1,1,1,1,1,-1,-1,-1,1,-1,-1,-1,1
1,1,1,1,1,1,1,1,-1,-1,-1,1,-1,-1,-1,1
1,1,-1,1,1,1,1,-1,-1,-1,-1,1,-1,-1,-1,1
1,1,1,1,1,1,1,1,-1,-1,-1,-1,-1,-1,-1,1
1,1,1,1,1,1,-1,1,-1,-1,-1,-1,-1,-1,-1,1
1,1,1,1,1,1,-1,1,-1,-1,-1,-1,-1,-1,-1,1
1,1,1,1,1,1,-1,1,-1,-1,-1,-1,-1,-1,-1,1
1,1,1,1,1,-1,-1,1,-1,-1,-1,-1,-1,-1,-1,1
1,1,1,1,1,1,1,1,-1,-1,-1,-1,-1,-1,-1,1
1,1,1,1,1,1,-1,-1,-1,-1,-1,-1,-1,-1,-1,1
1,1,1,1,1,1,-1,1,-1,-1,-1,-1,-1,-1,-1,1
1,1,1,1,1,1,1,1,-1,-1,-1,-1,-1,-1,-1,1
1,1,1,1,1,1,-1,1,-1,-1,-1,-1,-1,-1,-1,1
1,1,1,1,1,1,-1,1,-1,-1,1,1,-1,-1,-1,1
1,1,1,1,1,1,-1,1,-1,-1,-1,-1,-1,-1,-1,1
1,1,1,1,1,1,1,1,-1,-1,-1,1,-1,-1,-1,1
1,1,1,1,1,1,1,1,-1,-1,-1,-1,-1,-1,-1,1
1,1,-1,1,1,1,-1,1,-1,-1,-1,-1,-1,-1,-1,1
1,1,1,1,1,1,1,1,1,-1,-1,-1,-1,-1,-1,1
1,1,1,1,1,1,1,1,1,-1,-1,-1,-1,-1,-1,1
1,1,1,1,1,1,1,1,1,-1,-1,-1,-1,-1,-1,1
1,1,1,1,1,1,1,1,1,-1,-1,-1,-1,-1,-1,1
1,1,1,1,1,1,1,-1,1,-1,-1,-1,-1,-1,-1,1
1,1,1,1,1,1,1,1,1,-1,-1,-1,-1,-1,-1,1
1,1,1,1,1,1,1,1,1,-1,-1,-1,-1,-1,-1,1
1,1,1,1,1,1,1,-1,1,-1,-1,-1,-1,-1,-1,1
1,1,1,1,1,1,1,1,1,-1,-1,-1,-1,-1,-1,1
1,1,1,1,1,1,1,1,1,-1,-1,1,-1,-1,-1,1
1,1,1,1,1,1,1,1,1,-1,-1,-1,-1,-1,-1,1
1,1,1,1,1,1,1,1,1,-1,-1,1,-1,-1,-1,1
1,1,1,1,1,1,1,1,1,-1,-1,-1,-1,1,-1,1
1,1,1,1,1,1,1,1,1,-1,-1,-1,-1,-1,-1,1
1,1,1,1,1,1,1,1,1,-1,-1,-1,-1,-1,-1,1
1,1,1,1,1,1,1,1,1,-1,-1,-1,-1,-1,-1,1
1,1,1,1,1,1,1,1,1,-1,-1,-1,-1,-1,-1,1
1,1,1,1,1,1,1,1,1,-1,1,-1,-1,-1,-1,1
1,1,1,1,1,1,1,1,1,-1,1,-1,-1,-1,-1,1
1,1,1,1,1,1,1,1,1,-1,1,-1,-1,-1,-1,1
1,1,-1,1,1,1,1,1,1,-1,-1,-1,-1,-1,-1,1
1,1,1,1,-1,1,1,1,1,-1,-1,-1,-1,-1,-1,1
1,1,1,1,1,1,1,1,1,-1,-1,1,-1,-1,-1,1
1,1,1,1,1,1,1,1,1,-1,-1,1,-1,-1,-1,1
1,1,1,1,1,1,1,1,1,-1,-1,-1,-1,-1,-1,1
1,1,1,1,1,1,1,1,1,-1,-1,-1,-1,-1,-1,1
1,1,1,1,-1,1,1,1,1,-1,-1,-1,-1,-1,-1,1
1,1,1,1,1,1,1,1,1,-1,-1,-1,-1,-1,-1,1
1,1,1,1,1,1,1,1,1,-1,-1,-1,-1,-1,-1,1
1,1,1,1,1,1,1,1,1,-1,-1,-1,-1,-1,-1,1
1,1,1,1,1,1,1,1,1,-1,-1,-1,-1,-1,-1,1
1,1,1,1,1,1,1,1,1,-1,-1,-1,-1,-1,-1,1
1,1,1,1,1,1,1,1,1,-1,-1,-1,-1,-1,-1,1
1,1,1,1,1,1,1,1,1,-1,-1,-1,-1,-1,-1,1
1,1,1,1,1,1,1,1,1,-1,-1,-1,-1,-1,-1,1
1,1,1,1,1,1,1,1,1,-1,-1,-1,-1,-1,-1,1
1,1,1,1,1,1,1,1,1,-1,-1,-1,-1,-1,-1,1
1,1,1,1,1,1,1,1,1,-1,-1,-1,-1,-1,-1,1
1,1,1,1,1,1,1,1,1,-1,1,-1,-1,-1,-1,1
1,1,1,1,1,1,1,1,1,-1,-1,-1,-1,-1,-1,1
1,1,1,1,1,1,1,1,1,-1,-1,-1,-1,-1,-1,1
1,1,1,1,1,1,1,1,1,-1,-1,-1,-1,-1,-1,1
1,1,1,1,1,1,1,1,1,-1,-1,-1,1,-1,-1,1
1,1,1,1,1,1,1,1,-1,-1,-1,-1,1,-1,-1,1
1,1,-1,1,1,1,1,-1,-1,-1,-1,-1,-1,-1,-1,1
1,1,1,1,1,1,1,1,-1,-1,1,1,-1,-1,-1,1
1,1,1,1,1,1,1,1,-1,-1,1,-1,-1,-1,-1,1
1,1,1,1,1,1,1,1,-1,-1,-1,-1,-1,-1,-1,1
1,1,1,1,-1,1,1,-1,-1,-1,-1,-1,-1,-1,-1,1
1,1,1,1,1,1,1,1,-1,-1,-1,1,-1,-1,-1,1
1,-1,1,1,1,1,1,1,-1,-1,1,1,-1,-1,-1,1
1,1,1,1,1,1,1,1,-1,-1,-1,-1,-1,-1,-1,1
1,1,1,1,1,1,1,1,-1,-1,-1,1,-1,-1,-1,1
1,1,1,1,1,1,1,1,-1,-1,-1,1,-1,-1,-1,1
1,1,1,1,1,1,1,1,-1,-1,-1,1,-1,-1,-1,1
1,1,1,1,1,1,1,1,-1,-1,-1,1,-1,-1,-1,1
1,1,1,1,1,1,1,1,-1,-1,-1,-1,-1,-1,-1,1
1,1,1,1,1,1,1,1,-1,-1,-1,-1,-1,-1,-1,1
1,1,1,1,1,1,1,1,-1,-1,1,-1,-1,-1,-1,1
1,1,1,1,1,1,1,1,-1,-1,1,-1,-1,-1,-1,1
1,1,1,1,1,1,1,1,-1,-1,1,1,-1,-1,-1,1
1,1,1,1,1,1,1,1,-1,-1,1,1,-1,-1,-1,1
1,1,1,1,1,1,1,1,-1,-1,1,1,-1,-1,-1,1
1,1,1,1,1,1,1,1,-1,-1,1,1,-1,-1,-1,1
1,1,1,1,1,1,-1,1,-1,-1,1,1,-1,-1,-1,1
1,1,1,1,1,1,1,1,-1,-1,1,1,-1,-1,-1,1
1,1,1,1,1,1,1,1,-1,-1,1,1,-1,-1,-1,1
1,1,1,1,1,1,1,1,-1,-1,1,1,-1,-1,-1,1
1,1,1,1,1,1,1,1,-1,-1,1,1,-1,-1,-1,1
1,1,1,1,1,1,1,1,-1,-1,1,1,-1,-1,-1,1
1,1,1,1,1,1,1,1,-1,-1,1,1,-1,-1,-1,1
1,1,1,1,1,-1,1,1,-1,-1,1,1,-1,-1,-1,1
1,1,1,1,1,1,1,1,-1,-1,1,1,-1,-1,-1,1
1,1,1,1,1,1,1,1,-1,-1,1,1,-1,-1,-1,1
1,1,1,1,1,1,1,1,-1,-1,1,-1,-1,-1,-1,1
1,1,1,1,1,1,1,1,-1,-1,1,1,-1,-1,-1,1
1,1,1,1,1,1,1,1,-1,-1,1,1,-1,-1,-1,1
1,1,1,1,1,-1,1,1,-1,-1,1,1,-1,-1,-1,1
1,1,1,1,1,1,1,1,-1,-1,1,1,-1,-1,-1,1
1,1,1,1,1,1,1,1,-1,-1,1,1,-1,-1,-1,1
1,1,1,1,1,1,1,1,-1,-1,-1,1,-1,-1,-1,1
1,1,1,1,1,1,1,1,-1,-1,-1,1,-1,-1,-1,1
1,1,1,1,1,1,1,1,-1,-1,-1,1,-1,-1,-1,1
1,1,1,1,1,1,1,1,-1,-1,-1,1,-1,-1,-1,1
1,1,1,1,1,1,1,1,-1,-1,-1,1,-1,-1,-1,1
1,1,1,1,1,1,1,1,-1,-1,-1,1,-1,-1,-1,1
1,1,1,1,1,1,1,1,-1,-1,-1,1,-1,-1,-1,1
1,1,1,1,1,1,1,1,-1,-1,-1,1,-1,-1,-1,1
1,1,-1,1,1,1,1,1,-1,-1,-1,-1,-1,-1,-1,1
1,-1,1,1,1,1,1,1,-1,-1,-1,1,-1,-1,-1,1
1,-1,1,1,1,1,-1,1,-1,-1,-1,-1,-1,-1,-1,1
1,1,1,1,1,1,1,1,-1,1,1,-1,-1,-1,-1,1
1,1,1,1,1,1,1,1,-1,-1,1,-1,-1,-1,-1,1
1,1,1,1,1,1,-1,1,-1,-1,-1,-1,-1,-1,-1,1
1,1,1,1,1,1,1,1,-1,-1,-1,-1,-1,-1,-1,1
1,1,1,1,1,1,1,1,-1,-1,1,-1,-1,-1,-1,1
1,1,1,1,1,1,1,1,-1,-1,1,-1,-1,-1,-1,1
1,1,1,1,1,1,1,1,-1,-1,-1,-1,-1,-1,-1,1
1,1,-1,1,1,1,1,1,-1,-1,-1,-1,-1,-1,-1,1
1,1,1,1,1,1,1,1,-1,-1,-1,-1,-1,-1,-1,1
1,1,1,1,1,1,1,1,-1,-1,-1,-1,-1,-1,-1,1
1,1,1,1,1,1,1,1,-1,-1,-1,-1,-1,-1,-1,1
1,1,1,1,1,1,1,1,-1,-1,-1,-1,-1,-1,-1,1
1,1,1,1,1,1,1,1,-1,-1,-1,-1,-1,-1,-1,1
1,1,1,1,1,1,1,1,-1,-1,-1,-1,-1,-1,-1,1
1,1,1,1,1,1,1,1,-1,-1,-1,-1,-1,-1,-1,1
1,1,1,1,1,1,1,1,-1,-1,1,-1,-1,-1,-1,1
1,1,1,1,1,1,1,1,-1,-1,1,-1,-1,-1,-1,1
1,1,1,1,1,1,1,1,-1,-1,1,-1,-1,-1,-1,1
1,1,1,1,1,1,1,1,-1,-1,1,-1,-1,-1,-1,1
1,1,1,1,-1,1,1,1,-1,-1,1,-1,-1,-1,-1,1
1,1,1,1,1,1,1,1,-1,-1,1,-1,-1,-1,-1,1
1,1,1,1,1,1,1,1,-1,-1,-1,-1,-1,-1,-1,1
1,1,1,1,1,1,1,1,-1,-1,-1,-1,-1,-1,-1,1
1,1,1,1,1,1,1,1,-1,-1,-1,-1,-1,-1,-1,1
1,1,1,1,1,1,-1,1,-1,-1,-1,-1,-1,-1,-1,1
1,1,1,1,1,1,1,1,-1,-1,1,-1,-1,-1,-1,1
1,1,-1,1,1,1,1,1,-1,-1,-1,-1,-1,-1,-1,1
1,1,1,1,1,1,1,1,-1,-1,-1,-1,-1,-1,-1,1
1,1,1,1,1,1,1,1,-1,-1,1,1,-1,-1,-1,1
1,-1,1,1,-1,-1,1,1,-1,-1,-1,-1,-1,-1,-1,1
1,-1,1,1,1,1,1,1,-1,-1,1,-1,-1,-1,-1,1
1,-1,1,1,1,1,1,1,-1,-1,1,-1,-1,-1,-1,1
-1,1,1,-1,1,1,1,1,-1,-1,-1,-1,-1,-1,-1,1
-1,1,1,1,-1,1,1,1,-1,-1,-1,-1,-1,-1,-1,1
-1,1,1,1,1,1,1,1,-1,-1,1,-1,-1,-1,-1,1
-1,1,-1,1,1,1,1,1,-1,-1,-1,-1,-1,-1,-1,1
-1,1,1,1,1,1,-1,1,-1,-1,-1,-1,-1,-1,-1,1
1,1,1,-1,1,1,1,1,-1,-1,-1,-1,-1,-1,-1,-1
1,1,1,1,-1,-1,1,1,-1,-1,-1,-1,-1,-1,-1,-1
1,1,1,1,-1,1,1,-1,-1,-1,-1,-1,-1,-1,-1,-1
1,1,-1,1,-1,-1,1,1,-1,-1,-1,-1,-1,-1,-1,-1
1,1,-1,1,-1,1,1,1,-1,-1,-1,-1,-1,-1,-1,-1
1,1,1,-1,-1,-1,1,1,-1,-1,-1,-1,-1,-1,-1,-1
1,1,-1,1,-1,-1,1,-1,-1,-1,-1,-1,-1,-1,-1,-1
1,-1,-1,1,-1,-1,1,-1,-1,-1,-1,-1,-1,-1,-1,-1
1,-1,-1,1,1,1,1,-1,-1,-1,-1,-1,-1,-1,-1,-1
1,1,1,-1,1,1,-1,1,-1,-1,-1,-1,-1,-1,-1,-1
1,1,1,-1,-1,1,1,1,-1,-1,-1,-1,-1,-1,-1,-1
1,1,1,-1,-1,-1,1,-1,-1,-1,-1,-1,-1,-1,-1,-1
1,1,-1,-1,1,1,1,1,-1,-1,-1,-1,-1,-1,-1,-1
1,1,1,1,-1,-1,-1,1,-1,-1,-1,-1,-1,-1,-1,-1
1,1,1,1,1,1,1,-1,-1,-1,-1,-1,-1,-1,-1,-1
1,1,-1,-1,1,-1,1,1,-1,-1,-1,-1,-1,-1,-1,-1
1,1,1,1,-1,1,1,-1,-1,-1,-1,-1,-1,-1,-1,-1
1,-1,-1,1,1,1,1,1,-1,-1,-1,-1,-1,-1,-1,-1
1,1,1,1,1,1,1,1,1,-1,-1,1,1,1,-1,-1
1,1,-1,1,1,1,1,1,1,-1,-1,1,1,1,-1,-1
1,1,1,1,1,1,1,1,1,1,1,1,-1,-1,-1,-1
1,1,1,1,1,-1,1,1,1,1,1,1,-1,-1,-1,-1
1,1,1,1,1,1,1,1,1,1,1,1,1,-1,-1,-1
1,1,1,1,1,-1,1,1,1,1,1,1,-1,-1,-1,-1
1,1,1,1,1,-1,1,1,1,1,1,1,-1,-1,-1,-1
1,1,1,1,1,1,1,1,1,1,1,1,-1,-1,-1,-1
1,1,1,-1,1,1,1,1,1,1,-1,-1,1,1,-1,-1
1,-1,1,1,1,1,-1,1,-1,-1,-1,-1,-1,-1,-1,-1
1,-1,-1,1,-1,-1,-1,-1,-1,-1,-1,-1,-1,-1,-1,-1
1,-1,1,1,-1,1,-1,1,-1,-1,-1,-1,-1,-1,-1,-1
1,1,1,-1,-1,1,1,1,-1,-1,-1,-1,-1,-1,-1,-1
1,-1,1,1,-1,-1,1,-1,-1,-1,-1,-1,-1,-1,-1,-1
1,1,1,-1,1,1,1,1,-1,-1,-1,-1,-1,-1,-1,-1
1,1,-1,1,-1,1,-1,1,-1,-1,-1,-1,-1,-1,-1,-1
1,1,1,1,1,-1,1,1,-1,-1,-1,-1,-1,-1,-1,-1
1,-1,-1,-1,1,1,1,-1,-1,-1,-1,-1,-1,-1,-1,-1
-1,1,1,-1,1,1,1,-1,-1,-1,-1,-1,-1,-1,-1,-1
-1,1,-1,-1,1,1,1,1,-1,-1,-1,-1,-1,-1,-1,-1
-1,1,-1,-1,1,1,1,1,-1,-1,-1,-1,-1,-1,-1,-1
-1,1,1,1,1,-1,1,1,-1,-1,-1,-1,-1,-1,-1,-1
-1,1,1,1,1,1,1,1,-1,-1,-1,-1,-1,1,-1,-1
-1,1,1,-1,-1,1,1,1,-1,-1,-1,-1,-1,-1,-1,-1
-1,1,1,1,-1,1,1,-1,-1,-1,-1,-1,-1,-1,-1,-1
-1,1,-1,-1,-1,1,1,-1,-1,-1,-1,-1,-1,-1,-1,-1
-1,-1,-1,1,-1,1,-1,1,-1,-1,-1,-1,-1,-1,-1,-1
-1,-1,1,-1,-1,1,1,1,-1,-1,-1,-1,-1,-1,-1,-1
-1,-1,-1,1,1,-1,1,1,-1,-1,-1,-1,-1,-1,-1,-1
-1,1,-1,-1,1,1,1,1,-1,-1,-1,-1,-1,-1,-1,-1
-1,-1,1,1,1,1,1,1,-1,-1,-1,-1,-1,-1,-1,-1
-1,-1,-1,-1,-1,1,1,-1,-1,-1,-1,-1,-1,-1,-1,-1
-1,-1,-1,1,1,1,1,1,-1,-1,-1,-1,-1,-1,-1,-1
1,-1,-1,-1,1,-1,1,1,-1,-1,-1,-1,-1,-1,-1,-1
1,1,1,1,1,-1,1,-1,-1,-1,-1,-1,-1,-1,-1,-1
1,1,-1,-1,1,-1,1,1,-1,-1,-1,-1,-1,-1,-1,-1
1,1,-1,-1,-1,-1,1,-1,-1,-1,-1,-1,-1,-1,-1,-1
1,-1,1,1,-1,1,1,-1,-1,-1,-1,-1,-1,-1,-1,-1
1,-1,-1,-1,1,-1,1,1,-1,-1,-1,-1,-1,-1,-1,-1
1,1,1,-1,1,1,1,1,-1,-1,-1,-1,-1,-1,-1,-1
1,-1,-1,-1,-1,1,1,1,-1,-1,-1,-1,-1,-1,-1,-1
1,-1,-1,1,1,1,1,1,-1,-1,-1,-1,-1,-1,-1,-1
1,-1,-1,1,1,1,1,1,-1,-1,-1,-1,-1,-1,-1,-1
1,-1,1,-1,1,1,-1,-1,-1,-1,-1,-1,-1,-1,-1,-1
1,1,1,-1,1,1,-1,-1,-1,-1,-1,-1,-1,-1,-1,-1
1,1,1,1,1,1,-1,1,-1,-1,-1,-1,-1,-1,-1,-1
1,1,-1,1,1,-1,1,1,-1,-1,-1,-1,-1,-1,-1,-1
1,-1,1,1,-1,1,1,1,-1,-1,-1,-1,-1,-1,-1,-1
1,-1,1,1,-1,1,1,1,-1,-1,-1,-1,-1,-1,-1,-1
1,1,1,1,1,-1,1,1,-1,-1,-1,-1,-1,-1,-1,-1
1,1,1,1,-1,-1,1,1,-1,-1,-1,-1,-1,-1,-1,-1
-1,1,-1,-1,1,1,1,1,-1,-1,-1,-1,-1,-1,-1,-1
-1,1,-1,1,1,-1,1,1,-1,-1,-1,-1,-1,-1,-1,-1
-1,1,-1,-1,-1,1,1,1,-1,-1,-1,-1,-1,-1,-1,-1
-1,-1,1,1,1,1,1,1,-1,-1,-1,-1,-1,-1,-1,-1
-1,-1,1,-1,1,1,1,1,-1,-1,-1,-1,-1,-1,-1,-1
-1,1,1,1,1,1,1,1,-1,-1,-1,-1,-1,-1,-1,-1
-1,-1,1,1,1,1,1,1,-1,-1,-1,-1,-1,-1,-1,-1
-1,-1,1,-1,-1,1,1,1,-1,-1,-1,-1,-1,-1,-1,-1
-1,-1,1,1,1,1,1,1,-1,-1,-1,-1,-1,-1,-1,-1
-1,-1,1,1,1,1,1,1,-1,-1,-1,-1,-1,-1,-1,-1
1,1,1,-1,-1,1,1,1,-1,-1,-1,-1,-1,-1,-1,-1
1,1,1,-1,-1,1,1,1,-1,-1,-1,-1,-1,-1,-1,-1
1,1,-1,-1,-1,1,1,1,-1,-1,-1,-1,-1,-1,-1,-1
1,-1,1,-1,1,-1,1,1,-1,-1,-1,-1,-1,-1,-1,-1
1,1,-1,1,1,-1,1,-1,-1,-1,-1,-1,-1,-1,-1,-1
1,1,1,1,1,1,1,1,-1,-1,-1,-1,-1,-1,-1,-1
1,1,1,1,1,1,1,-1,-1,-1,-1,-1,-1,-1,-1,-1
1,-1,1,1,-1,1,-1,-1,-1,-1,-1,-1,-1,-1,-1,-1
1,-1,-1,1,1,-1,1,1,-1,-1,-1,-1,-1,-1,-1,-1
1,-1,-1,-1,-1,1,1,1,-1,-1,-1,-1,-1,-1,-1,-1
1,1,1,1,-1,-1,1,1,-1,-1,-1,-1,-1,-1,-1,-1
1,1,1,-1,1,1,1,1,-1,-1,-1,-1,1,-1,-1,-1
1,1,1,1,1,1,1,-1,-1,-1,-1,-1,-1,-1,-1,-1
1,1,1,-1,1,1,1,-1,-1,-1,-1,-1,-1,-1,-1,-1
1,-1,1,1,1,1,1,1,-1,-1,-1,-1,-1,-1,-1,-1
1,-1,1,1,1,1,1,1,-1,-1,-1,-1,-1,-1,-1,-1
1,-1,1,1,-1,1,1,-1,-1,-1,-1,-1,-1,-1,-1,-1
1,-1,1,1,1,1,1,1,-1,-1,-1,-1,-1,-1,-1,-1
1,-1,1,-1,1,1,1,1,-1,-1,-1,-1,-1,-1,-1,-1
1,-1,1,-1,1,1,1,1,-1,-1,-1,-1,-1,-1,-1,-1
1,-1,-1,1,1,1,1,-1,-1,-1,-1,-1,-1,-1,-1,-1
1,-1,-1,-1,1,-1,1,-1,-1,-1,-1,-1,-1,-1,-1,-1
1,-1,1,-1,1,-1,-1,1,-1,-1,-1,-1,-1,-1,-1,-1
1,1,-1,-1,-1,1,-1,-1,-1,-1,-1,-1,-1,-1,-1,-1
1,1,-1,1,1,-1,1,1,-1,-1,-1,-1,-1,-1,-1,-1
1,-1,1,1,-1,1,1,-1,-1,-1,-1,-1,-1,-1,-1,-1
1,-1,1,1,1,-1,1,1,-1,-1,-1,-1,-1,-1,-1,-1
1,-1,1,-1,-1,-1,1,1,-1,-1,-1,-1,-1,-1,-1,-1
1,-1,1,-1,1,-1,1,1,-1,-1,-1,-1,-1,-1,-1,-1
1,-1,-1,-1,1,-1,1,1,-1,-1,-1,-1,-1,-1,-1,-1
1,-1,-1,-1,1,1,1,1,-1,-1,-1,-1,-1,-1,-1,-1
1,-1,-1,1,1,-1,-1,-1,-1,-1,-1,-1,-1,-1,-1,-1
1,1,-1,1,1,-1,1,1,-1,-1,-1,1,-1,-1,-1,-1
1,1,1,-1,-1,-1,1,1,-1,-1,-1,-1,-1,-1,-1,-1
1,-1,1,-1,1,1,1,1,-1,-1,-1,-1,-1,-1,-1,-1
1,1,-1,1,-1,1,1,1,-1,-1,-1,-1,-1,-1,-1,-1
-1,-1,1,1,-1,1,1,-1,-1,-1,-1,-1,-1,-1,-1,-1
-1,1,-1,-1,-1,1,1,-1,-1,-1,-1,-1,-1,-1,-1,-1
-1,-1,-1,-1,1,-1,-1,-1,-1,-1,-1,-1,-1,-1,-1,-1
-1,-1,1,1,1,1,-1,1,-1,-1,-1,-1,-1,-1,-1,-1
-1,-1,1,1,1,1,1,1,-1,-1,-1,-1,-1,-1,-1,-1
-1,1,1,1,1,-1,-1,1,-1,-1,-1,-1,-1,-1,-1,-1
-1,1,-1,-1,-1,1,1,1,-1,-1,-1,-1,-1,-1,-1,-1
-1,-1,1,-1,-1,-1,1,1,-1,-1,-1,-1,-1,-1,-1,-1
-1,-1,-1,-1,1,-1,1,1,-1,-1,-1,-1,-1,-1,-1,-1
-1,1,-1,-1,-1,-1,1,-1,-1,-1,-1,-1,-1,-1,-1,-1
-1,1,1,1,1,1,-1,1,-1,-1,-1,-1,-1,-1,-1,-1
-1,1,-1,-1,-1,-1,1,1,-1,-1,-1,-1,-1,-1,-1,-1
-1,1,-1,1,-1,-1,1,1,-1,-1,-1,-1,-1,-1,-1,-1
-1,1,-1,1,1,1,1,-1,-1,-1,-1,-1,-1,-1,-1,-1
-1,1,-1,1,1,1,1,-1,-1,-1,-1,-1,-1,-1,-1,-1
-1,1,-1,1,1,-1,-1,-1,-1,-1,-1,-1,-1,-1,-1,-1
-1,1,-1,1,1,1,1,-1,-1,-1,-1,-1,-1,-1,-1,-1
-1,1,-1,1,1,-1,1,-1,-1,-1,-1,-1,-1,-1,-1,-1
-1,1,-1,1,1,-1,1,1,-1,-1,-1,-1,-1,-1,-1,-1
-1,1,1,-1,1,1,1,-1,-1,-1,-1,-1,-1,-1,-1,-1
-1,-1,1,-1,1,1,-1,1,-1,-1,-1,-1,-1,-1,-1,-1
-1,-1,1,1,-1,-1,1,1,-1,-1,-1,-1,-1,-1,-1,-1
-1,1,1,-1,-1,-1,1,-1,-1,-1,-1,-1,-1,-1,-1,-1
-1,1,1,-1,1,1,-1,1,-1,-1,-1,-1,-1,-1,-1,-1
-1,-1,1,-1,1,-1,-1,-1,-1,-1,-1,-1,-1,-1,-1,-1
-1,-1,1,1,-1,-1,1,1,-1,-1,-1,-1,-1,-1,-1,-1
-1,-1,1,1,1,-1,1,1,-1,-1,-1,-1,-1,-1,-1,-1
-1,1,1,1,1,1,1,1,-1,-1,-1,-1,-1,-1,-1,-1
-1,1,1,1,1,-1,1,-1,-1,-1,-1,-1,-1,-1,-1,-1
-1,-1,1,-1,1,1,1,-1,-1,-1,-1,-1,-1,-1,-1,-1
-1,-1,1,-1,1,1,1,-1,-1,-1,-1,-1,-1,-1,-1,-1
-1,-1,1,-1,-1,1,1,-1,-1,-1,-1,-1,-1,-1,-1,-1
-1,-1,1,-1,-1,1,1,-1,-1,-1,-1,-1,-1,-1,-1,-1
-1,-1,-1,1,1,1,-1,1,-1,-1,-1,-1,-1,-1,-1,-1
-1,-1,-1,-1,-1,1,1,-1,-1,-1,-1,-1,-1,-1,-1,-1
-1,-1,-1,-1,-1,1,1,-1,-1,-1,-1,-1,-1,-1,-1,-1
-1,1,-1,-1,1,1,1,1,-1,-1,-1,-1,-1,-1,-1,-1
-1,1,-1,-1,-1,1,1,1,-1,-1,-1,-1,-1,-1,-1,-1
-1,1,-1,-1,1,-1,1,1,-1,-1,-1,-1,-1,-1,-1,-1
-1,1,1,-1,1,-1,-1,1,-1,-1,-1,-1,-1,-1,-1,-1
-1,-1,1,1,-1,1,1,1,-1,-1,-1,-1,-1,-1,-1,-1
-1,-1,-1,-1,1,1,-1,1,-1,-1,-1,-1,-1,-1,-1,-1
-1,-1,1,-1,1,1,-1,1,-1,-1,-1,-1,-1,-1,-1,-1
-1,-1,-1,1,-1,1,1,1,-1,-1,-1,-1,-1,-1,-1,-1
-1,1,1,1,1,-1,1,1,-1,-1,-1,-1,-1,-1,-1,-1
-1,1,-1,-1,-1,1,1,-1,-1,-1,-1,-1,-1,-1,-1,-1
-1,-1,1,-1,1,1,1,1,-1,-1,-1,-1,-1,-1,-1,-1
-1,1,1,1,-1,-1,1,1,-1,-1,1,-1,-1,-1,-1,-1
-1,1,1,1,1,1,1,1,-1,-1,-1,-1,-1,-1,-1,-1
-1,1,-1,1,-1,1,1,1,-1,-1,-1,-1,-1,-1,-1,-1
-1,1,1,1,-1,-1,-1,-1,-1,-1,-1,-1,-1,-1,-1,-1
-1,1,1,1,1,1,1,-1,-1,-1,1,-1,-1,-1,-1,-1
-1,-1,-1,-1,1,1,1,1,-1,-1,-1,-1,-1,-1,-1,-1
-1,1,-1,-1,-1,1,-1,1,-1,-1,-1,-1,-1,-1,-1,-1
-1,1,1,-1,1,1,1,-1,-1,-1,-1,-1,-1,-1,-1,-1
-1,1,1,1,1,1,1,1,-1,-1,-1,-1,-1,-1,-1,-1
1,1,-1,1,1,1,1,1,-1,-1,-1,-1,-1,-1,-1,-1
1,1,-1,1,1,1,1,-1,-1,-1,-1,-1,-1,-1,-1,-1
1,1,-1,-1,-1,1,1,1,-1,-1,-1,-1,-1,-1,-1,-1
1,1,-1,1,-1,-1,1,1,-1,-1,-1,-1,-1,-1,-1,-1
1,-1,1,1,1,1,-1,1,-1,-1,-1,-1,-1,-1,-1,-1
1,-1,1,-1,-1,1,1,1,-1,-1,-1,-1,-1,-1,-1,-1
1,-1,1,1,1,1,-1,1,-1,-1,-1,-1,-1,-1,-1,-1
1,-1,1,-1,1,1,1,1,-1,-1,-1,-1,-1,-1,-1,-1
1,-1,1,-1,1,1,-1,1,-1,-1,-1,-1,-1,-1,-1,-1
1,1,-1,-1,1,-1,1,-1,-1,-1,-1,-1,-1,-1,-1,-1
1,-1,1,-1,-1,1,1,1,-1,-1,-1,-1,-1,-1,-1,-1
1,-1,1,1,-1,1,1,1,-1,-1,-1,-1,-1,-1,-1,-1
1,-1,-1,-1,-1,-1,1,1,-1,-1,-1,-1,-1,-1,-1,-1
1,1,1,-1,1,-1,1,1,-1,-1,-1,-1,-1,-1,-1,-1
1,1,1,-1,-1,1,1,-1,-1,-1,-1,-1,-1,-1,-1,-1
1,1,1,1,1,-1,1,1,-1,-1,-1,-1,-1,-1,-1,-1
1,1,-1,-1,-1,1,1,1,-1,-1,-1,-1,-1,-1,-1,-1
1,-1,-1,-1,-1,1,1,1,-1,-1,-1,-1,-1,-1,-1,-1
1,1,1,-1,1,1,1,-1,-1,-1,-1,-1,-1,-1,-1,-1
1,1,1,1,1,-1,-1,1,-1,-1,-1,-1,-1,-1,-1,-1
1,1,1,-1,-1,-1,-1,1,-1,-1,-1,-1,-1,-1,-1,-1
1,-1,-1,-1,1,1,1,1,-1,-1,-1,-1,-1,-1,-1,-1
1,1,1,1,-1,1,1,-1,-1,-1,-1,-1,-1,-1,-1,-1
1,1,1,-1,1,1,1,-1,-1,-1,-1,-1,-1,-1,-1,-1
1,1,1,-1,-1,-1,1,1,-1,-1,-1,-1,-1,-1,-1,-1
1,-1,-1,1,1,1,1,1,-1,-1,-1,-1,-1,-1,-1,-1
1,1,-1,1,-1,1,1,-1,-1,-1,-1,-1,-1,-1,-1,-1
1,1,1,-1,1,1,1,1,-1,-1,-1,-1,-1,-1,-1,-1
1,1,-1,1,1,-1,1,-1,-1,-1,-1,-1,-1,-1,-1,-1
1,-1,1,-1,-1,-1,1,1,-1,-1,-1,-1,-1,-1,-1,-1
1,1,1,-1,1,1,-1,1,-1,-1,-1,-1,-1,-1,-1,-1
1,-1,1,1,-1,1,1,1,-1,-1,-1,-1,-1,-1,-1,-1
1,-1,-1,1,1,1,1,1,-1,-1,-1,-1,-1,-1,-1,-1
1,1,1,1,1,-1,1,1,1,-1,-1,-1,-1,-1,-1,-1
1,-1,-1,1,1,1,1,1,-1,-1,-1,-1,-1,-1,-1,-1
1,1,-1,-1,-1,1,-1,-1,-1,-1,-1,-1,-1,-1,-1,-1
1,-1,1,1,1,-1,1,1,-1,-1,-1,-1,-1,-1,-1,-1
1,-1,1,1,-1,1,1,-1,-1,-1,-1,-1,-1,-1,-1,-1
1,-1,1,-1,1,1,1,1,-1,-1,-1,-1,-1,-1,-1,-1
1,-1,1,1,-1,-1,1,-1,-1,-1,-1,-1,-1,-1,-1,-1
1,-1,1,-1,1,-1,1,1,-1,-1,-1,-1,-1,-1,-1,-1
-1,1,1,1,1,-1,-1,-1,-1,-1,-1,-1,-1,-1,-1,-1
-1,1,1,-1,1,1,-1,-1,-1,-1,-1,-1,-1,-1,-1,-1
-1,1,1,1,-1,-1,1,1,-1,-1,-1,-1,-1,-1,-1,-1
-1,1,1,-1,-1,1,-1,-1,-1,1,-1,-1,-1,-1,-1,-1
-1,1,-1,-1,-1,-1,-1,1,-1,-1,-1,-1,-1,-1,-1,-1
-1,-1,1,-1,-1,1,1,1,-1,-1,-1,-1,-1,-1,-1,-1
-1,-1,1,1,-1,-1,-1,-1,-1,-1,-1,-1,-1,-1,-1,-1
-1,1,1,-1,1,1,-1,-1,-1,-1,-1,-1,-1,-1,-1,-1
-1,1,-1,1,1,1,-1,1,-1,-1,-1,-1,-1,-1,-1,-1
-1,1,1,-1,-1,-1,1,1,-1,-1,-1,-1,-1,-1,-1,-1
-1,-1,-1,1,1,1,1,-1,-1,-1,-1,-1,-1,-1,-1,-1
-1,1,1,-1,1,1,1,-1,-1,-1,-1,-1,-1,-1,-1,-1
1,-1,-1,1,1,1,1,1,-1,-1,-1,1,-1,-1,-1,-1
1,-1,-1,1,1,-1,1,1,-1,-1,-1,-1,-1,-1,-1,-1
1,-1,-1,-1,1,-1,1,1,-1,-1,-1,-1,-1,-1,-1,-1
1,1,1,1,-1,1,-1,-1,-1,-1,-1,-1,-1,-1,-1,-1
1,1,-1,1,1,-1,1,-1,-1,-1,-1,-1,-1,-1,-1,-1
1,-1,1,1,-1,-1,1,1,-1,-1,-1,-1,-1,-1,-1,-1
1,-1,1,-1,1,1,1,1,-1,-1,-1,-1,-1,-1,-1,-1
1,-1,1,-1,-1,1,-1,-1,-1,-1,-1,-1,-1,-1,-1,-1
1,-1,1,-1,-1,-1,1,-1,-1,-1,-1,-1,-1,-1,-1,-1
1,-1,-1,-1,-1,-1,1,1,-1,-1,-1,-1,-1,-1,-1,-1
1,-1,1,-1,1,1,1,1,-1,-1,-1,-1,-1,-1,-1,-1
1,1,1,1,-1,1,1,1,-1,-1,-1,-1,-1,-1,-1,-1
1,1,-1,1,-1,-1,1,1,-1,-1,-1,-1,-1,-1,-1,-1
1,-1,1,-1,1,-1,1,1,-1,-1,-1,-1,-1,-1,-1,-1
1,-1,-1,-1,1,-1,1,1,-1,-1,-1,-1,-1,-1,-1,-1
1,1,-1,-1,-1,-1,1,1,-1,-1,-1,-1,-1,-1,-1,-1
1,1,1,1,-1,1,1,-1,-1,-1,-1,-1,-1,-1,-1,-1
1,1,1,1,-1,1,1,-1,-1,-1,-1,-1,-1,-1,-1,-1
1,1,1,1,1,1,1,1,-1,-1,-1,-1,-1,-1,-1,-1
1,1,1,-1,1,1,1,-1,-1,-1,-1,-1,-1,-1,-1,-1
1,1,1,1,1,-1,1,-1,1,-1,-1,-1,-1,-1,-1,-1
1,1,1,1,1,-1,1,1,1,-1,-1,-1,-1,-1,-1,-1
1,1,1,-1,1,-1,1,1,1,-1,-1,-1,-1,-1,-1,-1
1,1,1,-1,1,1,1,1,1,-1,-1,-1,-1,-1,-1,-1
1,1,1,1,1,1,1,1,1,-1,-1,-1,-1,-1,-1,-1
1,1,1,1,-1,1,1,1,1,-1,-1,-1,-1,-1,-1,-1
1,1,1,1,1,-1,1,1,1,-1,-1,-1,-1,-1,-1,-1
1,1,1,1,1,1,1,-1,1,-1,-1,-1,-1,-1,-1,-1
1,1,1,1,1,1,1,1,1,-1,-1,-1,-1,-1,-1,-1
1,1,1,-1,1,1,1,1,1,-1,-1,-1,-1,-1,-1,-1
1,1,1,1,-1,1,1,1,1,-1,-1,-1,-1,-1,-1,-1
1,-1,1,-1,-1,-1,1,1,-1,-1,-1,-1,-1,-1,-1,-1
1,1,1,1,1,1,1,-1,-1,-1,-1,1,-1,-1,-1,-1
1,1,-1,-1,-1,1,1,-1,-1,-1,-1,-1,-1,-1,-1,-1
1,1,1,-1,1,1,1,-1,-1,-1,-1,-1,-1,-1,-1,-1
1,1,1,1,1,1,-1,1,-1,-1,-1,-1,-1,-1,-1,-1
1,-1,1,1,1,1,1,1,-1,-1,-1,-1,-1,-1,-1,-1
1,-1,-1,-1,-1,1,1,1,-1,-1,-1,-1,-1,-1,-1,-1
1,1,-1,1,1,1,-1,1,-1,-1,-1,-1,-1,-1,-1,-1
1,1,-1,1,1,1,1,1,-1,-1,-1,1,-1,-1,-1,-1
1,1,1,-1,1,1,1,1,-1,-1,-1,-1,-1,-1,-1,-1
1,1,1,1,1,1,1,1,-1,-1,-1,-1,-1,-1,-1,-1
1,1,1,1,-1,1,1,1,-1,-1,1,-1,-1,-1,-1,-1
1,1,1,1,-1,1,1,1,-1,-1,1,-1,-1,-1,-1,-1
1,1,1,1,1,-1,1,1,-1,-1,1,1,-1,-1,-1,-1
1,1,-1,1,1,1,1,1,-1,-1,-1,1,-1,-1,-1,-1
1,1,1,1,-1,-1,-1,1,-1,-1,-1,-1,-1,-1,-1,-1
1,1,1,1,1,-1,1,1,-1,-1,-1,-1,-1,-1,-1,-1
1,1,1,1,1,1,1,1,-1,1,-1,-1,-1,-1,-1,-1
1,1,1,-1,1,1,1,1,-1,1,-1,-1,-1,-1,-1,-1
1,1,-1,1,-1,-1,1,1,-1,-1,-1,-1,-1,-1,-1,-1
1,-1,-1,-1,1,1,1,-1,-1,-1,-1,-1,-1,-1,-1,-1
1,-1,-1,1,1,-1,-1,1,-1,-1,-1,1,-1,-1,-1,-1
1,-1,1,1,-1,-1,1,1,-1,-1,1,-1,-1,-1,-1,-1
1,-1,-1,1,1,1,1,1,-1,-1,-1,-1,-1,-1,-1,-1
1,-1,1,1,1,1,1,1,-1,-1,-1,-1,-1,-1,-1,-1
1,1,-1,1,1,1,1,1,-1,-1,-1,-1,-1,-1,-1,-1
1,1,1,1,1,1,1,1,-1,-1,-1,-1,-1,-1,-1,-1
1,1,1,1,1,1,1,-1,-1,-1,-1,-1,-1,-1,-1,-1
1,1,-1,1,1,1,1,1,-1,-1,-1,-1,-1,-1,-1,-1
1,-1,1,-1,1,-1,-1,-1,-1,-1,-1,-1,-1,-1,-1,-1
1,-1,-1,-1,1,1,-1,1,-1,-1,-1,-1,-1,-1,-1,-1
1,1,1,1,-1,-1,1,1,-1,-1,-1,-1,-1,-1,-1,-1
1,1,-1,-1,-1,1,1,1,-1,-1,-1,-1,-1,-1,-1,-1
1,1,1,-1,-1,1,1,1,-1,-1,-1,-1,-1,-1,-1,-1
1,1,1,1,1,-1,1,1,-1,-1,-1,-1,-1,-1,-1,-1
1,1,1,-1,1,-1,-1,1,-1,-1,-1,-1,-1,-1,-1,-1
1,1,-1,1,1,1,1,-1,-1,-1,-1,-1,-1,-1,-1,-1
1,1,1,1,-1,1,1,1,-1,-1,-1,-1,-1,-1,-1,-1
1,1,-1,1,-1,-1,-1,-1,-1,-1,-1,-1,-1,-1,-1,-1
1,1,-1,-1,-1,-1,-1,-1,-1,-1,-1,-1,-1,-1,-1,-1
1,1,-1,1,1,1,1,1,-1,-1,-1,-1,-1,-1,-1,-1
1,1,1,-1,1,1,1,1,-1,-1,-1,-1,-1,-1,-1,-1
1,1,1,1,-1,1,1,1,-1,-1,1,-1,-1,-1,-1,-1
1,1,-1,-1,1,-1,-1,1,-1,-1,-1,-1,-1,-1,-1,-1
1,1,1,-1,-1,1,1,1,-1,-1,-1,-1,-1,-1,-1,-1
1,-1,1,-1,1,1,-1,1,-1,-1,-1,-1,-1,-1,-1,-1
1,-1,1,1,-1,1,1,1,-1,-1,-1,-1,-1,-1,-1,-1
1,-1,-1,1,1,-1,1,1,-1,-1,-1,-1,-1,-1,-1,-1
1,-1,1,1,-1,-1,1,-1,-1,-1,-1,-1,-1,-1,-1,-1
1,1,1,1,-1,-1,-1,-1,-1,-1,-1,-1,-1,-1,-1,-1
1,1,1,-1,-1,-1,1,1,-1,-1,-1,-1,-1,-1,-1,-1
1,-1,1,1,-1,1,1,-1,-1,-1,-1,-1,-1,-1,-1,-1
1,-1,1,1,1,1,1,1,-1,-1,-1,-1,-1,-1,-1,-1
1,1,-1,1,-1,-1,1,-1,-1,-1,-1,-1,-1,-1,-1,-1
1,1,1,-1,1,1,1,-1,-1,-1,-1,-1,-1,-1,-1,-1
-1,1,1,-1,1,-1,-1,-1,-1,-1,-1,-1,-1,-1,-1,-1
-1,1,1,-1,-1,-1,1,1,-1,-1,-1,-1,-1,-1,-1,-1
-1,1,-1,-1,-1,-1,-1,1,-1,-1,-1,-1,-1,-1,-1,-1
-1,-1,1,1,-1,-1,1,1,-1,-1,-1,-1,-1,-1,-1,-1
-1,-1,-1,-1,-1,-1,1,1,-1,-1,-1,-1,-1,-1,-1,-1
-1,1,1,-1,-1,1,1,1,-1,-1,-1,-1,-1,-1,-1,-1
-1,1,-1,-1,-1,-1,1,-1,-1,-1,-1,-1,-1,-1,-1,-1
-1,1,1,1,-1,-1,1,-1,-1,-1,-1,-1,-1,-1,-1,-1
-1,-1,-1,1,1,1,1,-1,-1,-1,-1,-1,1,-1,-1,-1
-1,-1,1,1,-1,-1,-1,-1,-1,-1,-1,-1,-1,-1,-1,-1
-1,-1,-1,1,1,1,-1,1,-1,-1,-1,-1,-1,-1,-1,-1
-1,-1,1,1,1,-1,1,1,-1,-1,-1,-1,-1,-1,-1,-1
-1,-1,1,1,1,-1,1,1,-1,-1,-1,-1,-1,-1,-1,-1
-1,1,1,-1,-1,1,1,1,-1,-1,-1,-1,-1,-1,-1,-1
-1,1,1,1,1,-1,1,-1,-1,-1,-1,-1,-1,-1,-1,-1
-1,-1,-1,1,-1,-1,1,-1,-1,-1,-1,-1,-1,-1,-1,-1
-1,-1,1,1,1,1,1,-1,-1,-1,-1,-1,-1,-1,-1,-1
-1,-1,-1,1,-1,1,1,-1,-1,-1,-1,-1,-1,-1,-1,-1
-1,-1,1,-1,1,-1,1,1,-1,-1,-1,-1,-1,-1,-1,-1
-1,1,1,1,-1,1,1,1,-1,-1,-1,-1,-1,-1,-1,-1
-1,1,1,-1,-1,-1,1,1,-1,-1,-1,-1,-1,-1,-1,-1
-1,-1,1,1,-1,-1,1,-1,-1,-1,-1,-1,-1,-1,-1,-1
-1,-1,1,1,1,-1,1,1,-1,-1,-1,-1,-1,-1,-1,-1
-1,1,1,1,-1,-1,1,1,-1,-1,-1,-1,-1,-1,-1,-1
-1,-1,1,-1,1,1,-1,1,-1,-1,-1,-1,-1,-1,-1,-1
-1,1,1,1,-1,1,1,1,-1,-1,-1,-1,-1,-1,-1,-1
-1,1,1,-1,-1,1,1,1,-1,-1,-1,-1,-1,-1,-1,-1
-1,-1,1,-1,1,-1,-1,1,-1,-1,-1,-1,-1,-1,-1,-1
-1,1,1,1,1,1,1,1,-1,-1,-1,-1,-1,-1,-1,-1
-1,1,-1,1,-1,1,1,1,-1,-1,-1,-1,-1,-1,-1,-1
-1,1,1,1,-1,1,1,-1,-1,-1,-1,-1,-1,-1,-1,-1
-1,-1,1,1,-1,-1,1,-1,-1,-1,-1,-1,-1,-1,-1,-1
-1,-1,1,1,-1,1,1,1,-1,-1,-1,-1,-1,-1,-1,-1
-1,-1,-1,-1,1,-1,1,1,-1,-1,-1,-1,-1,-1,-1,-1
